{
  "defaultSeverity": "error",
  "extends": "tslint:latest",
  "rules": {
    "max-line-length": [
      false
    ],
    "comment-format": [
      false
    ],
    "semicolon": [
      false
    ],
    "no-trailing-whitespace": true,
    "trailing-comma": [
      true
    ],
    "object-literal-sort-keys": false,
    "member-access": false,
    "align": [
      true,
      "parameters",
      "statements"
    ],
    "quotemark": [
      true,
      "single",
      "jsx-double"
    ],
    "new-parens": true,
    "indent": [
      true,
      "spaces"
    ],
    "prefer-const": true,
    "prefer-conditional-expression": false,
    "no-arg": true,
    "no-var-requires": false,
    "no-bitwise": true,
    "no-consecutive-blank-lines": [
      true
    ]
  }
}